{
  "ok": true,
  "dataDir": "data",
  "port": 3007,
  "surveys": [
	{
		"id": "1",
		"owner": "tjsr",
		"title": "Tims really simple survey",
		"questions": [
			{
				"name": "preferences",
				"type": "order",
				"options": [
					{"id": "pina", "name": "Pina Colada" },
					{"id": "bc", "name": "Banana Caramel" },
					{"id": "rr", "name": "Rum and Raisin" },
					{"id": "fm", "name": "Framboise &amp; Macadamia" },
					{"id": "pc", "name": "Passionfruit Caramel" },
					{"id": "hp", "name": "Hazelnut Praline" },
					{"id": "mj", "name": "Mint Julep" },
					{"id": "pr", "name": "Passionfruit Caramel with Raspberry Ruby" }
				]
			},
			{
				"name": "valueformoney",
				"title": "A quick question on pricing",
				"summary": "I'm trying as best as I can to only cover costs - but it's a very fine line at the moment.<br />Boxes for Christmas will need to be boxes of 12 - based on previous quality/variety, what is an acceptable cost for these?",
				"type": "price"
			}
		]
	},
	{
		"id": "2",
		"owner": "tjsr",
		"title": "Christmas chocolate feedback survey.",
		"description": "Thanks for contributing to the 2019 chocolate project!  Everyone's help has allowed me to use quite a significant amount of good quality ingredients in products, which I hope you're all happy with the quality of.  Your feedback is really helpful for me in future in determining which flavours should be repeated, and whether I should start putting a price on the time it takes me to do these (there have been many 2am nights getting them finished in time).",
		"questions": [
			{
				"name": "preferences",
				"title": "Flavour preferences",
				"type": "order",
				"description": "Drag the flavours in to your order of ranking.  Check the ones you tried - you can just ignore the ones you didn't.",
				"withcheck": "true",
				"options": [
					{"id": "cassis", "name": "Blackcurrent w/Strawberry/Almond crunch", "img": "/images/2/cassisstrawberry-thumb.jpg" },
					{"id": "lemon", "name": "Lemon Meringue", "img": "/images/2/lemonmeringue-thumb.jpg" },
					{"id": "smores", "name": "S'Mores", "img": "/images/2/smores-thumb.jpg" },
					{"id": "banana", "name": "Banana Caramel", "img": "/images/2/bananacaramel-thumb.jpg" },
					{"id": "passion", "name": "Passion Colada", "img": "/images/2/passioncolada-thumb.jpg" },
					{"id": "peanut", "name": "Peanut Butter/Vanilla Caramel", "img": "/images/2/peanutcaramel-thumb.jpg" },
					{"id": "smores", "name": "Apricot Cobbler", "description": "Apricot compote, caramel ganache, walnut crunch base", "img": "/images/2/apricotcobbler-thumb.jpg" }
				]
			},
			{
				"name": "purchaser",
				"type": "select",
				"title": "Who provided these bonbons for you to try?",
				"description": "Did you order/purchase a box of these yourself, or did someone share their box with you?",
				"options" : [
					{"value": "me", "text": "I purchased the box" },
					{"value": "other", "text": "Someone else shared them with me" }
				]
			},
			{
				"name": "bonbonpricing",
				"title": "Regular bonbon pricing",
				"description": "Small bon-bons containing two flavours each were provided in 12-packs containing five varieties.  What do you believe was an acceptable price for the product provided?",
				"type": "price"
			},
			{
				"name": "boucneepricing",
				"title": "Bouchee bonbon pricing",
				"description": "Bouchee bon-bons containing three flavours each were provided in 4-packs containing two varieties.  What do you believe was an acceptable price for the product provided?",
				"type": "price"
			}
		
		]
	}
	]
}